{
	"groups": [],
	"permissions": [
		{
			"disableOn": false,
			"isSelected": true,
			"permissionCode": "INVENTORY_HISTORY",
			"permissionId": 1,
			"permissionName": "Inventory History"
		},
		{
			"disableOn": false,
			"isSelected": true,
			"permissionCode": "UPLOAD_DOCUMENT",
			"permissionId": 2,
			"permissionName": "Upload Documents"
		},
		{
			"disableOn": false,
			"isSelected": true,
			"permissionCode": "EMPLOYEE_DETAIL",
			"permissionId": 3,
			"permissionName": "Employee Details"
		},
		{
			"disableOn": false,
			"isSelected": true,
			"permissionCode": "SIGNUP_REQUEST",
			"permissionId": 4,
			"permissionName": "Sign Up Requests Action"
		}
	],
	"userId": 75
}