{
	"barcode": "C42287",
	"title": "K2241-08 VINSON 36-40 R-NECK F/S PQ LOOPER CATALOGUE (MH03) 6",
	"rsp": "342.86",
	"styleNo": "K2241-08",
	"imagePath": "Dummy Path",
	"itemDetail": [
		{
			"id": 43024,
			"referenceNo": "90212193",
			"quantity": 198,
			"purchase": 295.0,
			"packQty": 6,
			"warehouseId": 29,
			"warehouseName": "WHN3"
		},
		{
			"id": 43025,
			"referenceNo": "90212194",
			"quantity": 198,
			"purchase": 295.0,
			"packQty": 6,
			"warehouseId": 29,
			"warehouseName": "WHN3"
		},
		{
			"id": 43026,
			"referenceNo": "90212195",
			"quantity": 198,
			"purchase": 295.0,
			"packQty": 6,
			"warehouseId": 29,
			"warehouseName": "WHN3"
		},
		{
			"id": 43027,
			"referenceNo": "90212196",
			"quantity": 198,
			"purchase": 295.0,
			"packQty": 6,
			"warehouseId": 29,
			"warehouseName": "WHN3"
		},
		{
			"id": 43028,
			"referenceNo": "90212197",
			"quantity": 198,
			"purchase": 295.0,
			"packQty": 6,
			"warehouseId": 29,
			"warehouseName": "WHN3"
		},
		{
			"id": 43029,
			"referenceNo": "90212198",
			"quantity": 198,
			"purchase": 295.0,
			"packQty": 6,
			"warehouseId": 29,
			"warehouseName": "WHN3"
		},
		{
			"id": 43030,
			"referenceNo": "90212199",
			"quantity": 198,
			"purchase": 295.0,
			"packQty": 6,
			"warehouseId": 29,
			"warehouseName": "WHN3"
		},
		{
			"id": 43031,
			"referenceNo": "90212200",
			"quantity": 198,
			"purchase": 295.0,
			"packQty": 6,
			"warehouseId": 29,
			"warehouseName": "WHN3"
		},
		{
			"id": 43032,
			"referenceNo": "90212201",
			"quantity": 198,
			"purchase": 295.0,
			"packQty": 6,
			"warehouseId": 29,
			"warehouseName": "WHN3"
		},
		{
			"id": 43033,
			"referenceNo": "90212202",
			"quantity": 198,
			"purchase": 295.0,
			"packQty": 6,
			"warehouseId": 29,
			"warehouseName": "WHN3"
		},
		{
			"id": 43034,
			"referenceNo": "90212203",
			"quantity": 198,
			"purchase": 295.0,
			"packQty": 6,
			"warehouseId": 29,
			"warehouseName": "WHN3"
		},
		{
			"id": 43035,
			"referenceNo": "90212204",
			"quantity": 198,
			"purchase": 295.0,
			"packQty": 6,
			"warehouseId": 29,
			"warehouseName": "WHN3"
		},
		{
			"id": 43036,
			"referenceNo": "90212205",
			"quantity": 198,
			"purchase": 295.0,
			"packQty": 6,
			"warehouseId": 29,
			"warehouseName": "WHN3"
		},
		{
			"id": 43037,
			"referenceNo": "90212206",
			"quantity": 198,
			"purchase": 295.0,
			"packQty": 6,
			"warehouseId": 29,
			"warehouseName": "WHN3"
		},
		{
			"id": 43038,
			"referenceNo": "90212207",
			"quantity": 198,
			"purchase": 295.0,
			"packQty": 6,
			"warehouseId": 29,
			"warehouseName": "WHN3"
		},
		{
			"id": 43039,
			"referenceNo": "90212208",
			"quantity": 198,
			"purchase": 295.0,
			"packQty": 6,
			"warehouseId": 29,
			"warehouseName": "WHN3"
		},
		{
			"id": 43040,
			"referenceNo": "90212209",
			"quantity": 198,
			"purchase": 295.0,
			"packQty": 6,
			"warehouseId": 29,
			"warehouseName": "WHN3"
		},
		{
			"id": 43041,
			"referenceNo": "90212210",
			"quantity": 198,
			"purchase": 295.0,
			"packQty": 6,
			"warehouseId": 29,
			"warehouseName": "WHN3"
		},
		{
			"id": 43042,
			"referenceNo": "90212211",
			"quantity": 198,
			"purchase": 295.0,
			"packQty": 6,
			"warehouseId": 29,
			"warehouseName": "WHN3"
		},
		{
			"id": 43043,
			"referenceNo": "90212212",
			"quantity": 198,
			"purchase": 295.0,
			"packQty": 6,
			"warehouseId": 29,
			"warehouseName": "WHN3"
		},
		{
			"id": 43064,
			"referenceNo": "90212213",
			"quantity": 198,
			"purchase": 295.0,
			"packQty": 6,
			"warehouseId": 29,
			"warehouseName": "WHN3"
		},
		{
			"id": 43065,
			"referenceNo": "90212214",
			"quantity": 198,
			"purchase": 295.0,
			"packQty": 6,
			"warehouseId": 29,
			"warehouseName": "WHN3"
		},
		{
			"id": 43066,
			"referenceNo": "90212215",
			"quantity": 198,
			"purchase": 295.0,
			"packQty": 6,
			"warehouseId": 29,
			"warehouseName": "WHN3"
		},
		{
			"id": 43067,
			"referenceNo": "90212216",
			"quantity": 198,
			"purchase": 295.0,
			"packQty": 6,
			"warehouseId": 29,
			"warehouseName": "WHN3"
		},
		{
			"id": 43068,
			"referenceNo": "90212217",
			"quantity": 198,
			"purchase": 295.0,
			"packQty": 6,
			"warehouseId": 29,
			"warehouseName": "WHN3"
		},
		{
			"id": 43069,
			"referenceNo": "90212218",
			"quantity": 198,
			"purchase": 295.0,
			"packQty": 6,
			"warehouseId": 29,
			"warehouseName": "WHN3"
		},
		{
			"id": 43070,
			"referenceNo": "90212219",
			"quantity": 198,
			"purchase": 295.0,
			"packQty": 6,
			"warehouseId": 29,
			"warehouseName": "WHN3"
		},
		{
			"id": 43071,
			"referenceNo": "90212220",
			"quantity": 198,
			"purchase": 295.0,
			"packQty": 6,
			"warehouseId": 29,
			"warehouseName": "WHN3"
		},
		{
			"id": 43072,
			"referenceNo": "90212221",
			"quantity": 198,
			"purchase": 295.0,
			"packQty": 6,
			"warehouseId": 29,
			"warehouseName": "WHN3"
		},
		{
			"id": 43073,
			"referenceNo": "90212222",
			"quantity": 198,
			"purchase": 295.0,
			"packQty": 6,
			"warehouseId": 29,
			"warehouseName": "WHN3"
		},
		{
			"id": 43074,
			"referenceNo": "90212223",
			"quantity": 198,
			"purchase": 295.0,
			"packQty": 6,
			"warehouseId": 29,
			"warehouseName": "WHN3"
		},
		{
			"id": 43075,
			"referenceNo": "90212224",
			"quantity": 198,
			"purchase": 295.0,
			"packQty": 6,
			"warehouseId": 29,
			"warehouseName": "WHN3"
		},
		{
			"id": 43076,
			"referenceNo": "90212225",
			"quantity": 198,
			"purchase": 295.0,
			"packQty": 6,
			"warehouseId": 29,
			"warehouseName": "WHN3"
		},
		{
			"id": 43077,
			"referenceNo": "90212226",
			"quantity": 198,
			"purchase": 295.0,
			"packQty": 6,
			"warehouseId": 29,
			"warehouseName": "WHN3"
		}
	]
}